<svg width="26" height="17" viewBox="0 0 26 17" fill="none" xmlns="http://www.w3.org/2000/svg">
<path d="M0 0H25.5V2.83333H0V0ZM0 7.08333H25.5V9.91667H0V7.08333ZM0 14.1667H25.5V17H0V14.1667Z" fill="#5A5A5A"/>
</svg>
