<?xml version="1.0" encoding="utf-8"?>
<!-- Generator: Adobe Illustrator 23.0.1, SVG Export Plug-In . SVG Version: 6.00 Build 0)  -->
<svg version="1.1" id="Capa_1" xmlns="http://www.w3.org/2000/svg" xmlns:xlink="http://www.w3.org/1999/xlink" x="0px" y="0px"
	 viewBox="0 0 1280 427" style="enable-background:new 0 0 1280 427;" xml:space="preserve">
<style type="text/css">
	.st0{clip-path:url(#SVGID_2_);}
	.st1{clip-path:url(#SVGID_4_);fill:#61C76B;}
	.st2{clip-path:url(#SVGID_4_);fill:#26A861;}
	.st3{clip-path:url(#SVGID_6_);}
	.st4{clip-path:url(#SVGID_8_);fill:#61C76B;}
	.st5{clip-path:url(#SVGID_8_);fill:#26A861;}
	.st6{clip-path:url(#SVGID_10_);}
	.st7{clip-path:url(#SVGID_12_);fill:#26A861;}
	.st8{clip-path:url(#SVGID_12_);fill:#61C76B;}
	.st9{fill:#61C76B;}
	.st10{fill:#26A861;}
	.st11{clip-path:url(#SVGID_14_);}
	.st12{clip-path:url(#SVGID_16_);fill:#61C76B;}
	.st13{clip-path:url(#SVGID_16_);fill:#26A861;}
	.st14{clip-path:url(#SVGID_18_);}
	.st15{clip-path:url(#SVGID_20_);fill:#26A861;}
	.st16{clip-path:url(#SVGID_20_);fill:#61C76B;}
	.st17{clip-path:url(#SVGID_22_);}
	.st18{clip-path:url(#SVGID_24_);fill:#61C76B;}
	.st19{clip-path:url(#SVGID_24_);fill:#26A861;}
	.st20{clip-path:url(#SVGID_26_);}
	.st21{clip-path:url(#SVGID_28_);fill:#61C76B;}
	.st22{clip-path:url(#SVGID_28_);fill:#26A861;}
	.st23{clip-path:url(#SVGID_30_);}
	.st24{clip-path:url(#SVGID_32_);fill:#61C76B;}
	.st25{clip-path:url(#SVGID_32_);fill:#26A861;}
</style>
<g>
	<defs>
		<rect id="SVGID_1_" x="44" y="74.42" width="1220.06" height="278.15"/>
	</defs>
	<clipPath id="SVGID_2_">
		<use xlink:href="#SVGID_1_"  style="overflow:visible;"/>
	</clipPath>
	<path class="st0" d="M890.17,198.1c0.23-1.27,0.48-2.5,0.76-3.42c0.78-2.55,1.74-5.08,2.86-7.53c3.15-6.98,7.13-12.67,12.15-17.38
		c5.09-4.78,11.13-8.44,18.46-11.18c6.49-2.46,13.02-3.7,19.42-3.7c7.45,0,14.95,1.69,22.28,5.02c12.07,5.5,20.6,13.57,26.06,24.67
		c1.58,3.22,2.92,6.75,4.02,10.58c0.27,0.85,0.56,2.45,0.82,3.99L890.17,198.1z M987.79,241.96c-1.58,2.13-3.34,4.19-5.23,6.12
		l-0.24,0.16l-0.19,0.27c-0.07,0.07-0.15,0.14-0.22,0.21c-2.95,2.87-6.13,5.36-9.47,7.4c-3.5,2.15-7.37,3.94-11.53,5.33
		c-10.95,3.71-22.32,3.89-33.29,0.54l-0.76-0.23c-1.12-0.34-2.33-0.7-3.47-1.09l-0.16-0.05c-0.29-0.12-0.6-0.25-0.97-0.42
		c-0.38-0.16-0.75-0.33-1.13-0.5c-1.19-0.54-2.39-1.13-3.56-1.75c-3.8-2-7.24-4.3-10.23-6.85c-8.37-7.09-13.88-16.35-16.83-28.24
		l-0.12-0.5c-0.19-0.6-0.37-1.33-0.54-2.17c6.55,0.03,22.6,0.08,62.34,0.17l69.98,0.17l-0.21-13.1
		c-0.29-13.13-3.67-25.48-10.05-36.72c-0.74-1.31-1.57-2.68-2.49-4.09l-0.41-0.63c-0.31-0.49-0.63-0.97-0.94-1.43
		c-8.08-11.84-18.83-20.86-31.95-26.82c-10.47-4.76-21.25-7.17-32.06-7.17c-9.29,0-18.67,1.79-27.88,5.3
		c-11.1,4.15-20.64,10.26-28.37,18.16c-6.31,6.41-11.53,14.13-15.5,22.94c-8.89,19.72-9.52,39.96-1.86,60.14
		c4.31,11.59,10.74,21.5,19.11,29.46c6.19,5.89,13.54,10.8,21.83,14.56c0.91,0.42,1.85,0.82,2.81,1.21l0.02,0.67l2.4,0.19l0.41,0.12
		h0.55l0.34,0.34l0.5,0.3l0.46,0.36h0.02c8.04,3.01,16.31,4.02,24.59,4.02c4.96,0,10.07-0.56,15.19-1.55
		c12.53-2.45,23.83-7.67,33.57-15.45c1.57-1.24,3.15-2.59,4.71-4.03l0.09-0.09c0.65-0.62,1.3-1.23,1.94-1.88
		c0.11-0.11,0.21-0.22,0.31-0.32c0.18-0.17,0.35-0.34,0.51-0.51c0.19-0.18,0.37-0.37,0.57-0.58l3.23-3.45l-0.11-0.05
		c1.23-1.45,2.39-2.93,3.48-4.42l2.07-2.84l-19.2-13.96L987.79,241.96z"/>
</g>
<g>
	<defs>
		<path id="SVGID_3_" d="M890.17,198.1c0.23-1.27,0.48-2.5,0.75-3.42c0.78-2.55,1.74-5.08,2.86-7.53
			c3.16-6.98,7.13-12.67,12.15-17.38c5.09-4.78,11.13-8.44,18.46-11.18c6.49-2.46,13.02-3.7,19.42-3.7c7.45,0,14.95,1.69,22.28,5.02
			c12.07,5.5,20.6,13.57,26.06,24.67c1.58,3.22,2.93,6.75,4.02,10.58c0.27,0.85,0.56,2.45,0.82,3.99L890.17,198.1z M916.19,135.85
			c-11.1,4.15-20.64,10.26-28.36,18.16c-6.32,6.41-11.53,14.13-15.5,22.94c-8.89,19.72-9.52,39.96-1.86,60.14
			c4.31,11.59,10.74,21.5,19.11,29.46c6.19,5.89,13.54,10.8,21.83,14.56c0.91,0.42,1.85,0.82,2.81,1.21l0.02,0.66l2.4,0.19
			l0.41,0.12h0.55l0.34,0.34l0.5,0.31l0.46,0.36h0.02c8.04,3.01,16.31,4.02,24.59,4.02c4.96,0,10.07-0.56,15.19-1.55
			c12.53-2.45,23.83-7.67,33.57-15.45c1.58-1.24,3.15-2.59,4.71-4.03l0.09-0.09c0.65-0.62,1.3-1.23,1.94-1.88
			c0.11-0.11,0.21-0.22,0.31-0.32c0.18-0.17,0.35-0.34,0.51-0.52c0.19-0.18,0.37-0.37,0.57-0.58l3.24-3.45l-0.11-0.05
			c1.23-1.45,2.39-2.93,3.48-4.42l2.07-2.84l-19.2-13.96l-2.08,2.8c-1.58,2.13-3.34,4.19-5.23,6.12l-0.24,0.15l-0.19,0.27
			c-0.07,0.07-0.15,0.14-0.22,0.21c-2.94,2.87-6.13,5.36-9.47,7.4c-3.49,2.15-7.37,3.94-11.53,5.33
			c-10.95,3.71-22.32,3.89-33.29,0.54l-0.76-0.23c-1.12-0.34-2.33-0.7-3.47-1.09l-0.16-0.05c-0.3-0.12-0.6-0.25-0.97-0.42
			c-0.38-0.16-0.75-0.33-1.13-0.5c-1.19-0.54-2.39-1.13-3.56-1.75c-3.8-2-7.24-4.3-10.23-6.85c-8.37-7.09-13.89-16.35-16.83-28.24
			l-0.12-0.5c-0.19-0.6-0.37-1.33-0.54-2.17c6.55,0.03,22.6,0.08,62.34,0.17l69.99,0.17l-0.21-13.1
			c-0.3-13.13-3.68-25.48-10.05-36.72c-0.74-1.31-1.57-2.68-2.49-4.09l-0.41-0.63c-0.32-0.49-0.63-0.97-0.94-1.42
			c-8.08-11.84-18.83-20.86-31.94-26.83c-10.47-4.75-21.25-7.17-32.06-7.17C934.78,130.55,925.39,132.33,916.19,135.85"/>
	</defs>
	<clipPath id="SVGID_4_">
		<use xlink:href="#SVGID_3_"  style="overflow:visible;"/>
	</clipPath>
	<rect x="-16.33" y="258.35" class="st1" width="1340.73" height="46.61"/>
	<rect x="-16.33" y="210.73" class="st2" width="1340.73" height="47.62"/>
	<rect x="-16.33" y="163.11" class="st1" width="1340.73" height="47.62"/>
	<rect x="-16.33" y="116.5" class="st2" width="1340.73" height="46.61"/>
</g>
<g>
	<defs>
		<rect id="SVGID_5_" x="44" y="74.42" width="1220.06" height="278.15"/>
	</defs>
	<clipPath id="SVGID_6_">
		<use xlink:href="#SVGID_5_"  style="overflow:visible;"/>
	</clipPath>
	<path class="st3" d="M1051.34,198.1c0.23-1.27,0.48-2.5,0.76-3.42c0.78-2.55,1.74-5.08,2.87-7.53c3.15-6.98,7.13-12.67,12.15-17.38
		c5.09-4.78,11.13-8.44,18.46-11.18c6.49-2.46,13.03-3.7,19.42-3.7c7.45,0,14.95,1.69,22.28,5.02c12.07,5.5,20.6,13.57,26.06,24.67
		c1.58,3.22,2.92,6.75,4.02,10.58c0.27,0.85,0.56,2.45,0.82,3.99L1051.34,198.1z M1148.96,241.96c-1.58,2.13-3.34,4.19-5.23,6.12
		l-0.24,0.16l-0.19,0.27c-0.07,0.07-0.15,0.14-0.22,0.21c-2.94,2.87-6.13,5.36-9.47,7.4c-3.5,2.15-7.37,3.94-11.53,5.33
		c-10.95,3.71-22.32,3.89-33.29,0.54l-0.76-0.23c-1.12-0.34-2.33-0.7-3.47-1.09l-0.16-0.05c-0.29-0.12-0.6-0.25-0.97-0.42
		c-0.38-0.16-0.75-0.33-1.13-0.5c-1.19-0.54-2.39-1.13-3.57-1.75c-3.8-2-7.24-4.3-10.23-6.85c-8.37-7.09-13.88-16.35-16.83-28.24
		l-0.12-0.5c-0.19-0.6-0.37-1.33-0.54-2.17c6.55,0.03,22.6,0.08,62.34,0.17l69.98,0.17l-0.21-13.1
		c-0.29-13.13-3.67-25.48-10.05-36.72c-0.74-1.31-1.57-2.68-2.49-4.09l-0.41-0.63c-0.32-0.49-0.63-0.97-0.94-1.43
		c-8.08-11.84-18.83-20.86-31.95-26.82c-10.47-4.76-21.25-7.17-32.06-7.17c-9.29,0-18.67,1.79-27.87,5.3
		c-11.1,4.15-20.65,10.26-28.37,18.16c-6.31,6.41-11.53,14.13-15.5,22.94c-8.89,19.72-9.52,39.96-1.86,60.14
		c4.31,11.59,10.74,21.5,19.11,29.46c6.19,5.89,13.54,10.8,21.83,14.56c0.91,0.42,1.85,0.82,2.81,1.21l0.02,0.67l2.4,0.19l0.41,0.12
		h0.55l0.34,0.34l0.49,0.3l0.46,0.36h0.02c8.04,3.01,16.31,4.02,24.59,4.02c4.96,0,10.07-0.56,15.19-1.55
		c12.53-2.45,23.83-7.67,33.57-15.45c1.57-1.24,3.15-2.59,4.71-4.03l0.09-0.09c0.65-0.62,1.3-1.23,1.94-1.88
		c0.11-0.11,0.21-0.22,0.31-0.32c0.18-0.17,0.35-0.34,0.51-0.51c0.19-0.18,0.37-0.37,0.58-0.58l3.24-3.45l-0.11-0.05
		c1.23-1.45,2.39-2.93,3.48-4.42l2.07-2.84l-19.2-13.96L1148.96,241.96z"/>
</g>
<g>
	<defs>
		<path id="SVGID_7_" d="M1051.34,198.1c0.23-1.27,0.48-2.5,0.76-3.42c0.78-2.55,1.74-5.08,2.86-7.53
			c3.16-6.98,7.13-12.67,12.15-17.38c5.09-4.78,11.13-8.44,18.46-11.18c6.49-2.46,13.03-3.7,19.43-3.7c7.45,0,14.94,1.69,22.28,5.02
			c12.07,5.5,20.6,13.57,26.05,24.67c1.58,3.22,2.93,6.75,4.02,10.58c0.27,0.85,0.56,2.45,0.82,3.99L1051.34,198.1z M1077.36,135.85
			c-11.1,4.15-20.65,10.26-28.36,18.16c-6.32,6.41-11.53,14.13-15.5,22.94c-8.89,19.72-9.52,39.96-1.86,60.14
			c4.31,11.59,10.74,21.5,19.11,29.46c6.19,5.89,13.54,10.8,21.83,14.56c0.91,0.42,1.85,0.82,2.81,1.21l0.02,0.66l2.4,0.19
			l0.41,0.12h0.55l0.34,0.34l0.49,0.31l0.46,0.36h0.02c8.04,3.01,16.31,4.02,24.59,4.02c4.96,0,10.07-0.56,15.2-1.55
			c12.53-2.45,23.83-7.67,33.57-15.45c1.57-1.24,3.14-2.59,4.71-4.03l0.09-0.09c0.66-0.62,1.3-1.23,1.94-1.88
			c0.11-0.11,0.21-0.22,0.31-0.32c0.18-0.17,0.35-0.34,0.52-0.52c0.19-0.18,0.37-0.37,0.58-0.58l3.23-3.45l-0.11-0.05
			c1.23-1.45,2.39-2.93,3.48-4.42l2.07-2.84l-19.2-13.96l-2.07,2.8c-1.58,2.13-3.34,4.19-5.23,6.12l-0.24,0.15l-0.19,0.27
			c-0.07,0.07-0.15,0.14-0.22,0.21c-2.95,2.87-6.13,5.36-9.47,7.4c-3.5,2.15-7.37,3.94-11.53,5.33
			c-10.95,3.71-22.32,3.89-33.29,0.54l-0.76-0.23c-1.12-0.34-2.32-0.7-3.47-1.09l-0.16-0.05c-0.29-0.12-0.6-0.25-0.97-0.42
			c-0.38-0.16-0.75-0.33-1.13-0.5c-1.19-0.54-2.39-1.13-3.56-1.75c-3.8-2-7.24-4.3-10.23-6.85c-8.37-7.09-13.88-16.35-16.83-28.24
			l-0.12-0.5c-0.18-0.6-0.36-1.33-0.54-2.17c6.55,0.03,22.6,0.08,62.34,0.17l69.98,0.17l-0.21-13.1
			c-0.29-13.13-3.68-25.48-10.05-36.72c-0.74-1.31-1.57-2.68-2.49-4.09l-0.41-0.63c-0.32-0.49-0.63-0.97-0.94-1.42
			c-8.08-11.84-18.83-20.86-31.94-26.83c-10.47-4.75-21.25-7.17-32.06-7.17C1095.95,130.55,1086.56,132.33,1077.36,135.85"/>
	</defs>
	<clipPath id="SVGID_8_">
		<use xlink:href="#SVGID_7_"  style="overflow:visible;"/>
	</clipPath>
	<rect x="-16.33" y="258.35" class="st4" width="1340.73" height="46.61"/>
	<rect x="-16.33" y="210.73" class="st5" width="1340.73" height="47.62"/>
	<rect x="-16.33" y="163.11" class="st4" width="1340.73" height="47.62"/>
	<rect x="-16.33" y="116.5" class="st5" width="1340.73" height="46.61"/>
</g>
<g>
	<defs>
		<rect id="SVGID_9_" x="44" y="74.42" width="1220.06" height="278.15"/>
	</defs>
	<clipPath id="SVGID_10_">
		<use xlink:href="#SVGID_9_"  style="overflow:visible;"/>
	</clipPath>
	<path class="st6" d="M127.62,262.71c-6.42,0-12.47-0.97-18.01-2.88c-7.54-2.58-14.26-6.89-20.55-13.21
		c-10.85-10.8-16.12-23.49-16.12-38.8c0-15.22,5.28-27.89,16.15-38.71c6.3-6.32,13.05-10.64,20.64-13.21
		c5.47-1.88,11.49-2.83,17.89-2.83c15.17,0,27.78,5.25,38.55,16.05c10.78,10.82,16.02,23.49,16.02,38.71
		c0,15.31-5.24,28-16.01,38.82C155.4,257.45,142.79,262.71,127.62,262.71 M183.03,152.53c-15.2-15.27-33.84-23.01-55.4-23.01
		c-6,0-11.92,0.62-17.6,1.85c-15.65,3.45-30.37,11.15-40.39,21.14C52.63,169.58,44,188.33,44,208.23v144.35h24.1v-89.54
		c0.7,0.57,1.39,1.12,2.06,1.65c1.13,0.9,2.2,1.75,3.06,2.51c9.81,8.74,22.16,14.92,35.69,17.88c5.46,1.21,11.7,1.85,18.05,1.85
		c21.8,0,40.56-7.78,55.74-23.12c15.41-15.45,23.22-34.15,23.22-55.58C205.91,186.52,198.21,167.78,183.03,152.53"/>
</g>
<g>
	<defs>
		<path id="SVGID_11_" d="M109.61,259.83c-7.54-2.58-14.26-6.89-20.55-13.21c-10.85-10.8-16.12-23.49-16.12-38.79
			c0-15.23,5.28-27.89,16.14-38.71c6.3-6.32,13.05-10.64,20.65-13.22c5.47-1.88,11.49-2.83,17.88-2.83
			c15.17,0,27.78,5.25,38.55,16.05c10.78,10.82,16.02,23.49,16.02,38.72c0,15.3-5.24,28-16.01,38.81
			c-10.79,10.81-23.4,16.07-38.56,16.07C121.21,262.71,115.15,261.74,109.61,259.83 M110.02,131.37
			c-15.65,3.44-30.37,11.15-40.39,21.14C52.63,169.58,44,188.33,44,208.23v144.35h24.1v-89.54c0.7,0.57,1.39,1.12,2.06,1.65
			c1.13,0.9,2.2,1.75,3.05,2.51c9.81,8.74,22.16,14.93,35.69,17.88c5.46,1.21,11.7,1.85,18.05,1.85c21.8,0,40.56-7.78,55.74-23.12
			c15.41-15.45,23.22-34.15,23.22-55.58c0-21.71-7.7-40.45-22.88-55.7c-15.2-15.27-33.84-23.01-55.4-23.01
			C121.62,129.52,115.7,130.14,110.02,131.37"/>
	</defs>
	<clipPath id="SVGID_12_">
		<use xlink:href="#SVGID_11_"  style="overflow:visible;"/>
	</clipPath>
	<rect x="-16.33" y="304.96" class="st7" width="1340.73" height="47.62"/>
	<rect x="-16.33" y="258.35" class="st8" width="1340.73" height="46.61"/>
	<rect x="-16.33" y="210.73" class="st7" width="1340.73" height="47.62"/>
	<rect x="-16.33" y="163.11" class="st8" width="1340.73" height="47.62"/>
	<rect x="-16.33" y="116.5" class="st7" width="1340.73" height="46.61"/>
</g>
<rect x="215.71" y="74.43" width="24.1" height="215.89"/>
<rect x="215.71" y="258.35" class="st9" width="24.1" height="31.97"/>
<rect x="215.71" y="210.73" class="st10" width="24.1" height="47.62"/>
<rect x="215.71" y="163.11" class="st9" width="24.1" height="47.62"/>
<rect x="215.71" y="116.5" class="st10" width="24.1" height="46.61"/>
<rect x="215.71" y="74.43" class="st9" width="24.1" height="42.08"/>
<g>
	<defs>
		<rect id="SVGID_13_" x="44" y="74.42" width="1220.06" height="278.15"/>
	</defs>
	<clipPath id="SVGID_14_">
		<use xlink:href="#SVGID_13_"  style="overflow:visible;"/>
	</clipPath>
	<path class="st11" d="M357.21,257.88l-0.74,0.4c-7.46,3.93-15.61,5.84-24.88,5.84c-15.15,0-27.76-5.26-38.56-16.09
		c-8.57-8.54-13.61-18.07-15.4-29.15c-0.49-3.03-0.74-6.23-0.74-9.52c0-5.35,0.67-10.46,1.98-15.19
		c2.43-8.73,7.06-16.42,14.16-23.49c9.83-9.78,21.73-14.14,38.56-14.14c6.32,0,14.04,1.96,23.58,5.99
		c5.97,2.86,9.97,4.97,14.98,9.95c10.34,10.3,15.16,22.62,15.16,38.78c0,15.41-4.39,26.07-15.17,36.8
		C366.08,252.11,361.73,255.42,357.21,257.88 M388.02,153.91c-4.33-4.38-9.85-8.63-15.92-12.3l-0.55-0.36
		c-11.8-7.02-25.2-10.58-39.85-10.58c-21.69,0-41.04,7.95-55.94,22.98c-6.21,6.19-13.78,14.55-17.24,24.36
		c-0.09,0.21-0.28,0.63-0.28,0.63c-0.22,0.45-0.43,0.91-0.59,1.31c-4.39,9.97-4.97,20.47-4.97,29.43c0,8.24,0,16.02,1.85,23.63
		c0.56,2.29,1.25,4.41,2.1,6.48c1.68,4.78,4.61,10.46,8.05,15.6c2.82,4.22,7.39,10.16,13.12,14.57
		c17.27,13.27,32.21,18.44,53.29,18.44c16.32,0,30.46-4.28,43.23-13.07l0.37-0.2l0.17-0.18c1.74-1.28,2.77-2.62,3.7-3.81
		c0.68-0.89,1.27-1.65,2.13-2.41c0.26-0.22,0.5-0.45,0.73-0.67v23.59h26.11V197.5C407.51,179.86,400.77,166.58,388.02,153.91"/>
</g>
<g>
	<defs>
		<path id="SVGID_15_" d="M293.02,248.03c-8.57-8.54-13.61-18.07-15.4-29.15c-0.49-3.03-0.74-6.23-0.74-9.52
			c0-5.35,0.67-10.46,1.98-15.19c2.43-8.73,7.06-16.42,14.15-23.49c9.83-9.78,21.73-14.14,38.56-14.14c6.32,0,14.04,1.96,23.58,5.99
			c5.97,2.86,9.97,4.97,14.98,9.95c10.34,10.3,15.15,22.62,15.15,38.78c0,15.41-4.39,26.07-15.17,36.8
			c-4.05,4.06-8.39,7.37-12.92,9.83l-0.74,0.4c-7.46,3.93-15.61,5.84-24.88,5.84C316.43,264.12,303.82,258.86,293.02,248.03
			 M275.76,153.64c-6.21,6.19-13.78,14.55-17.24,24.36c-0.09,0.21-0.28,0.63-0.28,0.63c-0.21,0.45-0.43,0.91-0.59,1.31
			c-4.39,9.97-4.97,20.47-4.97,29.43c0,8.24,0,16.02,1.85,23.63c0.56,2.29,1.25,4.41,2.1,6.48c1.68,4.78,4.61,10.46,8.05,15.6
			c2.82,4.21,7.39,10.16,13.12,14.56c17.27,13.27,32.21,18.44,53.29,18.44c16.32,0,30.47-4.28,43.23-13.07l0.37-0.2l0.17-0.18
			c1.74-1.28,2.77-2.62,3.7-3.81c0.68-0.89,1.27-1.65,2.13-2.41c0.26-0.22,0.5-0.45,0.73-0.67v23.59h26.11V197.5
			c0-17.64-6.74-30.92-19.49-43.59c-4.33-4.38-9.85-8.63-15.92-12.3l-0.55-0.36c-11.8-7.02-25.2-10.58-39.85-10.58
			C310,130.67,290.65,138.61,275.76,153.64"/>
	</defs>
	<clipPath id="SVGID_16_">
		<use xlink:href="#SVGID_15_"  style="overflow:visible;"/>
	</clipPath>
	<rect x="-16.33" y="258.35" class="st12" width="1340.73" height="46.61"/>
	<rect x="-16.33" y="210.73" class="st13" width="1340.73" height="47.62"/>
	<rect x="-16.33" y="163.11" class="st12" width="1340.73" height="47.62"/>
	<rect x="-16.33" y="116.5" class="st13" width="1340.73" height="46.61"/>
</g>
<g>
	<defs>
		<rect id="SVGID_17_" x="44" y="74.42" width="1220.06" height="278.15"/>
	</defs>
	<clipPath id="SVGID_18_">
		<use xlink:href="#SVGID_17_"  style="overflow:visible;"/>
	</clipPath>
	<path class="st14" d="M525,133.67v85.17c0,13-3.12,21.64-10.44,28.92c-8.28,8.31-16.96,12.02-28.12,12.02
		c-11.97,0-23.2-4.38-30.81-12.02c-9.4-9.43-13.97-18.98-13.97-29.2v-84.88h-22.09v84.88c0,16.73,7.08,32.68,20.46,46.12
		c12.44,12.48,28.53,19.08,46.53,19.08c13.6,0,25.4-4.03,37.12-12.66c0.48-0.35,0.92-0.71,1.33-1.07v12.27
		c0,12.83-3.16,21.47-10.55,28.89c-8.48,8.42-17.12,12.18-28.01,12.18c-8.19,0-15.75-2.07-23.11-6.32
		c-6.96-4.03-12.39-9.63-16.13-16.66l-1.63-3.08l-21.14,11l1.57,3.11c5.58,11.1,14.03,20,25.09,26.45c10.83,6.37,23,9.61,36.16,9.61
		c16.75,0,30.72-6.2,43.98-19.5c12.03-12.07,17.87-27.01,17.87-45.69V133.67H525z"/>
</g>
<g>
	<defs>
		<path id="SVGID_19_" d="M524.99,133.67v85.17c0,13-3.12,21.64-10.44,28.92c-8.28,8.31-16.96,12.02-28.12,12.02
			c-11.97,0-23.2-4.38-30.81-12.02c-9.4-9.43-13.97-18.98-13.97-29.2v-84.89h-22.09v84.89c0,16.73,7.08,32.68,20.46,46.11
			c12.44,12.48,28.53,19.08,46.53,19.08c13.6,0,25.4-4.03,37.12-12.66c0.48-0.35,0.92-0.71,1.33-1.07v12.27
			c0,12.83-3.16,21.47-10.55,28.89c-8.48,8.43-17.11,12.19-28.01,12.19c-8.19,0-15.75-2.07-23.11-6.33
			c-6.96-4.03-12.39-9.63-16.13-16.66l-1.63-3.08l-21.14,11l1.57,3.11c5.58,11.1,14.03,20,25.09,26.45
			c10.83,6.37,23,9.61,36.16,9.61c16.75,0,30.72-6.2,43.98-19.5c12.03-12.07,17.87-27.02,17.87-45.69V133.67H524.99z"/>
	</defs>
	<clipPath id="SVGID_20_">
		<use xlink:href="#SVGID_19_"  style="overflow:visible;"/>
	</clipPath>
	<rect x="-16.33" y="304.96" class="st15" width="1340.73" height="47.62"/>
	<rect x="-16.33" y="258.35" class="st16" width="1340.73" height="46.61"/>
	<rect x="-16.33" y="210.73" class="st15" width="1340.73" height="47.62"/>
	<rect x="-16.33" y="163.11" class="st16" width="1340.73" height="47.62"/>
	<rect x="-16.33" y="116.5" class="st15" width="1340.73" height="46.61"/>
</g>
<g>
	<defs>
		<rect id="SVGID_21_" x="44" y="74.42" width="1220.06" height="278.15"/>
	</defs>
	<clipPath id="SVGID_22_">
		<use xlink:href="#SVGID_21_"  style="overflow:visible;"/>
	</clipPath>
	<path class="st17" d="M638.86,263.59c-15.29,0-28.01-5.3-38.89-16.21c-10.95-10.91-16.27-23.66-16.27-39
		c0-15.35,5.32-28.12,16.29-39.04c10.87-10.9,23.59-16.2,38.87-16.2c15.29,0,28,5.3,38.88,16.23
		c10.95,10.89,16.27,23.65,16.27,39.01c0,15.33-5.32,28.09-16.28,39.02C666.87,258.29,654.16,263.59,638.86,263.59 M694.69,151.99
		c-15.31-15.48-34.1-23.33-55.83-23.33c-21.74,0-40.52,7.84-55.8,23.27c-15.42,15.35-23.24,34.2-23.24,56.03
		c0,21.82,7.81,40.67,23.2,55.98c15.3,15.48,34.08,23.33,55.84,23.33c21.74,0,40.52-7.84,55.8-23.29
		c15.42-15.34,23.24-34.18,23.24-56.01C717.9,186.15,710.09,167.32,694.69,151.99"/>
</g>
<g>
	<defs>
		<path id="SVGID_23_" d="M599.97,247.38c-10.95-10.91-16.27-23.66-16.27-39c0-15.36,5.32-28.12,16.28-39.04
			c10.87-10.9,23.59-16.2,38.88-16.2c15.29,0,28,5.3,38.88,16.23c10.95,10.89,16.27,23.65,16.27,39.01
			c0,15.33-5.32,28.09-16.28,39.02c-10.86,10.89-23.58,16.19-38.87,16.19C623.57,263.59,610.85,258.29,599.97,247.38 M583.06,151.93
			c-15.42,15.35-23.24,34.2-23.24,56.03c0,21.82,7.81,40.67,23.2,55.98c15.3,15.48,34.09,23.32,55.84,23.32
			c21.74,0,40.52-7.85,55.8-23.29c15.42-15.34,23.24-34.18,23.24-56.01c0-21.8-7.81-40.64-23.21-55.97
			c-15.31-15.48-34.1-23.33-55.83-23.33C617.12,128.65,598.34,136.49,583.06,151.93"/>
	</defs>
	<clipPath id="SVGID_24_">
		<use xlink:href="#SVGID_23_"  style="overflow:visible;"/>
	</clipPath>
	<rect x="-16.33" y="258.35" class="st18" width="1340.73" height="46.61"/>
	<rect x="-16.33" y="210.73" class="st19" width="1340.73" height="47.62"/>
	<rect x="-16.33" y="163.11" class="st18" width="1340.73" height="47.62"/>
	<rect x="-16.33" y="116.5" class="st19" width="1340.73" height="46.61"/>
</g>
<g>
	<defs>
		<rect id="SVGID_25_" x="44" y="74.42" width="1220.06" height="278.15"/>
	</defs>
	<clipPath id="SVGID_26_">
		<use xlink:href="#SVGID_25_"  style="overflow:visible;"/>
	</clipPath>
	<path class="st20" d="M840.24,149.33c-13.15-13.2-26.74-19.09-44.05-19.09c-18.36,0-35.28,6.77-47.65,19.09
		c-13.74,13.79-20.71,29.3-20.71,46.11v95.89h23.1v-95.89c0-9.92,4.77-19.69,14.17-29.03c7.82-7.77,18.53-12.04,30.17-12.04
		c11.02,0,19.64,3.71,27.95,12.04c7.54,7.5,11.06,16.73,11.06,29.03v95.89h23.09v-95.89C857.37,175.71,851.93,161.05,840.24,149.33"
		/>
</g>
<g>
	<defs>
		<path id="SVGID_27_" d="M748.54,149.33c-13.74,13.79-20.71,29.3-20.71,46.11v95.89h23.1v-95.89c0-9.92,4.77-19.69,14.17-29.03
			c7.82-7.77,18.53-12.05,30.17-12.05c11.02,0,19.64,3.71,27.95,12.04c7.54,7.5,11.05,16.72,11.05,29.04v95.89h23.1v-95.89
			c0-19.73-5.44-34.38-17.13-46.11c-13.15-13.2-26.74-19.08-44.05-19.08C777.83,130.24,760.91,137.02,748.54,149.33"/>
	</defs>
	<clipPath id="SVGID_28_">
		<use xlink:href="#SVGID_27_"  style="overflow:visible;"/>
	</clipPath>
	<rect x="-16.33" y="258.5" class="st21" width="1340.73" height="46.53"/>
	<rect x="-16.33" y="210.95" class="st22" width="1340.73" height="47.55"/>
	<rect x="-16.33" y="163.41" class="st21" width="1340.73" height="47.55"/>
	<rect x="-16.33" y="116.87" class="st22" width="1340.73" height="46.53"/>
</g>
<g>
	<defs>
		<rect id="SVGID_29_" x="44" y="74.42" width="1220.06" height="278.15"/>
	</defs>
	<clipPath id="SVGID_30_">
		<use xlink:href="#SVGID_29_"  style="overflow:visible;"/>
	</clipPath>
	<path class="st23" d="M1248.91,132.66c-18.53,0-32.49,5.12-42.66,15.42c-12.8,12.84-18.5,25.27-18.5,40.07v102.17h22.09V188.15
		c0-8.82,4.55-15.26,12.4-23.14c5.5-5.46,14.22-8.25,26.67-8.25h15.15v-24.1H1248.91z"/>
</g>
<g>
	<defs>
		<path id="SVGID_31_" d="M1248.91,132.66c-18.53,0-32.49,5.12-42.66,15.41c-12.8,12.84-18.5,25.27-18.5,40.07v102.17h22.09V188.15
			c0-8.82,4.55-15.26,12.4-23.14c5.5-5.45,14.22-8.25,26.67-8.25h15.15v-24.1H1248.91z"/>
	</defs>
	<clipPath id="SVGID_32_">
		<use xlink:href="#SVGID_31_"  style="overflow:visible;"/>
	</clipPath>
	<rect x="-16.33" y="257.47" class="st24" width="1340.73" height="45.7"/>
	<rect x="-16.33" y="210.78" class="st25" width="1340.73" height="46.69"/>
	<rect x="-16.33" y="164.09" class="st24" width="1340.73" height="46.69"/>
	<rect x="-16.33" y="118.39" class="st25" width="1340.73" height="45.7"/>
</g>
</svg>
